[ {
  "uid" : "1db10e570d65fccb",
  "name" : "should remove the uploaded image",
  "time" : {
    "start" : 1566462307679,
    "stop" : 1566462307679,
    "duration" : 0
  },
  "status" : "skipped",
  "severity" : "normal"
}, {
  "uid" : "bca82f7617ebb943",
  "name" : "should select from ddl",
  "time" : {
    "start" : 1566466296614,
    "stop" : 1566466296614,
    "duration" : 0
  },
  "status" : "skipped",
  "severity" : "normal"
}, {
  "uid" : "c910a2ee7c2526e3",
  "name" : "should select from ddl",
  "time" : {
    "start" : 1566465726963,
    "stop" : 1566465727056,
    "duration" : 93
  },
  "status" : "broken",
  "severity" : "normal"
}, {
  "uid" : "ae593a30d9f26fe1",
  "name" : "\"before all\" hook",
  "time" : {
    "start" : 1566460975937,
    "stop" : 1566460979370,
    "duration" : 3433
  },
  "status" : "broken",
  "severity" : "normal"
}, {
  "uid" : "c29c484bdded34be",
  "name" : "should set the date",
  "time" : {
    "start" : 1566466296614,
    "stop" : 1566466296614,
    "duration" : 0
  },
  "status" : "skipped",
  "severity" : "normal"
}, {
  "uid" : "8f36cbd750b8472d",
  "name" : "should select the checkbox",
  "time" : {
    "start" : 1566465727056,
    "stop" : 1566465727140,
    "duration" : 84
  },
  "status" : "broken",
  "severity" : "normal"
}, {
  "uid" : "3a956e6a375809b9",
  "name" : "should set the date",
  "time" : {
    "start" : 1566465716232,
    "stop" : 1566465726963,
    "duration" : 10731
  },
  "status" : "broken",
  "severity" : "normal"
}, {
  "uid" : "8f35b35550948698",
  "name" : "should remove the uploaded image",
  "time" : {
    "start" : 1566466293770,
    "stop" : 1566466296613,
    "duration" : 2843
  },
  "status" : "passed",
  "severity" : "normal"
}, {
  "uid" : "a44ff16992b7ba5d",
  "name" : "should select the checkbox",
  "time" : {
    "start" : 1566466296614,
    "stop" : 1566466296614,
    "duration" : 0
  },
  "status" : "skipped",
  "severity" : "normal"
}, {
  "uid" : "4f4a7c6309496448",
  "name" : "should upload the file",
  "time" : {
    "start" : 1566462307678,
    "stop" : 1566462307678,
    "duration" : 0
  },
  "status" : "skipped",
  "severity" : "normal"
}, {
  "uid" : "82ff4f7b97e6cc2c",
  "name" : "should upload the file",
  "time" : {
    "start" : 1566466278401,
    "stop" : 1566466293770,
    "duration" : 15369
  },
  "status" : "passed",
  "severity" : "normal"
} ]