{
  "1c8eb3a7734c589eb19dbf038554a6a3" : {
    "statistic" : {
      "failed" : 0,
      "broken" : 0,
      "skipped" : 1,
      "passed" : 0,
      "unknown" : 0,
      "total" : 1
    },
    "items" : [ {
      "uid" : "a44ff16992b7ba5d",
      "status" : "skipped",
      "statusDetails" : "Test ignored",
      "time" : {
        "start" : 1566466296614,
        "stop" : 1566466296614,
        "duration" : 0
      }
    } ]
  },
  "799914d97fd73dc59c9134c9af31698c" : {
    "statistic" : {
      "failed" : 0,
      "broken" : 1,
      "skipped" : 0,
      "passed" : 0,
      "unknown" : 0,
      "total" : 1
    },
    "items" : [ {
      "uid" : "3a956e6a375809b9",
      "status" : "broken",
      "statusDetails" : "Can't call setValue on element with selector \"input.textInput.textInput--large.DateInput-textInput\" because element wasn't found",
      "time" : {
        "start" : 1566465716232,
        "stop" : 1566465726963,
        "duration" : 10731
      }
    } ]
  },
  "1571c8bcc3af44cce5f7bdf96069e34e" : {
    "statistic" : {
      "failed" : 0,
      "broken" : 0,
      "skipped" : 1,
      "passed" : 0,
      "unknown" : 0,
      "total" : 1
    },
    "items" : [ {
      "uid" : "1db10e570d65fccb",
      "status" : "skipped",
      "statusDetails" : "Test ignored",
      "time" : {
        "start" : 1566462307679,
        "stop" : 1566462307679,
        "duration" : 0
      }
    } ]
  },
  "5f57004502dec40cfa08f4c33150ebae" : {
    "statistic" : {
      "failed" : 0,
      "broken" : 1,
      "skipped" : 0,
      "passed" : 0,
      "unknown" : 0,
      "total" : 1
    },
    "items" : [ {
      "uid" : "ae593a30d9f26fe1",
      "status" : "broken",
      "statusDetails" : "connect ECONNREFUSED 127.0.0.1:4444",
      "time" : {
        "start" : 1566460975937,
        "stop" : 1566460979370,
        "duration" : 3433
      }
    } ]
  },
  "e67d5b5c4dd7ca1fe4157f8ee433f72" : {
    "statistic" : {
      "failed" : 0,
      "broken" : 1,
      "skipped" : 0,
      "passed" : 0,
      "unknown" : 0,
      "total" : 1
    },
    "items" : [ {
      "uid" : "8f36cbd750b8472d",
      "status" : "broken",
      "statusDetails" : "element click intercepted: Element <div class=\"AvatarPhoto AvatarPhoto--small TopbarPageHeaderGlobalActions-settingsMenuAvatar Avatar--color5\" role=\"img\" style=\"\">...</div> is not clickable at point (1168, 35). Other element would receive the click: <div class=\"pre-spacer\"></div>\n                  (Session info: chrome=76.0.3809.100)",
      "time" : {
        "start" : 1566465727056,
        "stop" : 1566465727140,
        "duration" : 84
      }
    } ]
  },
  "95e7770408a69a2fb334cace6b6f4131" : {
    "statistic" : {
      "failed" : 0,
      "broken" : 0,
      "skipped" : 1,
      "passed" : 0,
      "unknown" : 0,
      "total" : 1
    },
    "items" : [ {
      "uid" : "c29c484bdded34be",
      "status" : "skipped",
      "statusDetails" : "Test ignored",
      "time" : {
        "start" : 1566466296614,
        "stop" : 1566466296614,
        "duration" : 0
      }
    } ]
  },
  "86897bc02b5002ddb42d9d1e7854731f" : {
    "statistic" : {
      "failed" : 0,
      "broken" : 1,
      "skipped" : 0,
      "passed" : 0,
      "unknown" : 0,
      "total" : 1
    },
    "items" : [ {
      "uid" : "c910a2ee7c2526e3",
      "status" : "broken",
      "statusDetails" : "element click intercepted: Element <div class=\"AvatarPhoto AvatarPhoto--small TopbarPageHeaderGlobalActions-settingsMenuAvatar Avatar--color5\" role=\"img\" style=\"\">...</div> is not clickable at point (1168, 35). Other element would receive the click: <div class=\"pre-spacer\"></div>\n                  (Session info: chrome=76.0.3809.100)",
      "time" : {
        "start" : 1566465726963,
        "stop" : 1566465727056,
        "duration" : 93
      }
    } ]
  },
  "fa0092df30802bccd2c1bebc1a360b91" : {
    "statistic" : {
      "failed" : 0,
      "broken" : 0,
      "skipped" : 0,
      "passed" : 1,
      "unknown" : 0,
      "total" : 1
    },
    "items" : [ {
      "uid" : "8f35b35550948698",
      "status" : "passed",
      "time" : {
        "start" : 1566466293770,
        "stop" : 1566466296613,
        "duration" : 2843
      }
    } ]
  },
  "7ecff830d5453756e66a8c491ac66526" : {
    "statistic" : {
      "failed" : 0,
      "broken" : 0,
      "skipped" : 1,
      "passed" : 0,
      "unknown" : 0,
      "total" : 1
    },
    "items" : [ {
      "uid" : "bca82f7617ebb943",
      "status" : "skipped",
      "statusDetails" : "Test ignored",
      "time" : {
        "start" : 1566466296614,
        "stop" : 1566466296614,
        "duration" : 0
      }
    } ]
  },
  "beb1107c79eb425bf3aaf9e4906f0f3f" : {
    "statistic" : {
      "failed" : 0,
      "broken" : 0,
      "skipped" : 0,
      "passed" : 1,
      "unknown" : 0,
      "total" : 1
    },
    "items" : [ {
      "uid" : "82ff4f7b97e6cc2c",
      "status" : "passed",
      "time" : {
        "start" : 1566466278401,
        "stop" : 1566466293770,
        "duration" : 15369
      }
    } ]
  },
  "60c485047cf7a97b2d9394a22735d9ba" : {
    "statistic" : {
      "failed" : 0,
      "broken" : 0,
      "skipped" : 1,
      "passed" : 0,
      "unknown" : 0,
      "total" : 1
    },
    "items" : [ {
      "uid" : "4f4a7c6309496448",
      "status" : "skipped",
      "statusDetails" : "Test ignored",
      "time" : {
        "start" : 1566462307678,
        "stop" : 1566462307678,
        "duration" : 0
      }
    } ]
  }
}